…
  # filter(date < ymd(20151231)) %>% 
  group_by(street, cross, borough) %>% 
  summarize(count_inj = sum(injured), count_kill = sum(killed)) %>% 
  mutate(ksi = count_inj + count_kill) %>% 
  drop_na(cross, borough) %>% 
  arrange(desc(ksi)) %>% 
  ungroup() %>% 
  group_by(borough) %>% 
  mutate(ranking_in_borough = row_number(), 
         running_ksi = cumsum(ksi), 
         total_ksi_in_borough = sum(ksi, na.rm = TRUE),
         priority_area = if_else(running_ksi < 0.15*total_ksi_in_borough, 1, 0))
```

    ## # A tibble: 78,520 x 10
    ## # Groups:   borough [5]
    ##    street cross borough count_inj count_kill   ksi ranking_in_boro… running_ksi
    ##    <chr>  <chr> <chr>       <dbl>      <dbl> <dbl>            <int>       <dbl>
    ##  1 WEST … MAJO… BRONX         209          0   209                1         209
    ##  2 ATLAN… LOGA… BROOKL…       165          0   165                1         165
    ##  3 ROCKA… FARM… QUEENS        158          1   159                1         159
    ##  4 ROCKA… BREW… QUEENS        153          2   155                2         314
    ##  5 BRUCK… HUNT… BRONX         153          1   154                2         363
    ##  6 EAST … BRON… BRONX         142          0   142                3         505
    ##  7 3 AVE… 60 S… BROOKL…       136          0   136                2         301
    ##  8 LINDE… PENN… BROOKL…       134          0   134                3         435
    ##  9 PENNS… LIND… BROOKL…       133          0   133                4         568
    ## 10 EAST … EXTE… BRONX         132          0   132                4         637
    ## # … with 78,510 more rows, and 2 more variables: total_ksi_in_borough <dbl>,
    ## #   priority_area <dbl>
## Let us check how treatment is implimented?

Do we have strict exogeniety violations? We def have violations across
all million crashes/interventions, and then in the top most frequent
ones. But what about the intersections that are dangerous, but not that
dangerous? Does NYC truely go sequentially or just randomly fix, lets
say, the 50th to 150th most commonly dangerous intersections. If they
randomly fix, then we have satisfied strict exogeniety for that sample
and can test.

``` r
priority_intersections
```

    ## # A tibble: 293 x 5
    ##     LONG the_geom                                Street1  Street2            LAT
    ##    <dbl> <chr>                                   <chr>    <chr>            <dbl>
    ##  1 -74.0 POINT (-73.99280340951111 40.742910019… W 23 ST  AV OF THE AMERI…  40.7
    ##  2 -74.0 POINT (-73.98255629299412 40.731350134… E 14 ST  1 AV              40.7
    ##  3 -74.0 POINT (-73.98556874370907 40.757934524… W 45 ST  7 AV              40.8
    ##  4 -74.0 POINT (-73.98901118360183 40.718795529… LUDLOW … DELANCEY ST       40.7
    ##  5 -74.0 POINT (-73.99072636359251 40.755950404… W 40 ST  8 AV              40.8
    ##  6 -73.9 POINT (-73.94760500185852 40.825232859… W 145 ST AMSTERDAM AV      40.8
    ##  7 -74.0 POINT (-73.9914185853309 40.7448026820… W 26 ST  AV OF THE AMERI…  40.7
    ##  8 -74.0 POINT (-73.98656138491575 40.761660122… W 49 ST  8 AV              40.8
    ##  9 -74.0 POINT (-73.98978970704412 40.710093041… SOUTH ST RUTGERS SLIP      40.7
    ## 10 -74.0 POINT (-73.99683993951976 40.737360888… W 14 ST  AV OF THE AMERI…  40.7
    ## # … with 283 more rows

``` r
street_improvement_projects_intersections %>% 
  mutate(LONG = )
```

    ## # A tibble: 237 x 4
    ##    the_geom                       sip_year pjct_name              end_date      
    ##    <chr>                             <dbl> <chr>                  <chr>         
    ##  1 MULTIPOINT ((-73.903468781747…     2012 East New York Ave at … 11/15/2012 12…
    ##  2 MULTIPOINT ((-73.979993537971…     2018 Vanderbilt Ave at E 2… 12/19/2018 12…
    ##  3 MULTIPOINT ((-73.918702185268…     2014 46th Street and Queen… 07/28/2014 12…
    ##  4 MULTIPOINT ((-73.959432627318…     2016 St Marks Ave & Classo… 12/05/2016 12…
    ##  5 MULTIPOINT ((-73.968186877601…     2019 Lexington Ave and 59t… 03/31/2019 12…
    ##  6 MULTIPOINT ((-73.910813583388…     2016 Fulton St and Truxton… 01/01/2016 12…
    ##  7 MULTIPOINT ((-73.930355127005…     2019 University Ave, 165 S… 11/04/2019 12…
    ##  8 MULTIPOINT ((-73.974642244370…     2014 Ocean Parkway & Churc… 06/13/2014 12…
    ##  9 MULTIPOINT ((-73.872468341508…     2018 Lafayette Ave and Mor… 11/19/2018 12…
    ## 10 MULTIPOINT ((-73.953370175151…     2016 Fulton St and Bedford… 07/14/2016 12…
    ## # … with 227 more rows
…
cleaned_crashes %>%
  count(vehicle_1) %>% arrange(desc(n))
```

    ## # A tibble: 1,235 x 2
    ##    vehicle_1                                n
    ##    <chr>                                <int>
    ##  1 Sedan                               440400
    ##  2 PASSENGER VEHICLE                   416206
    ##  3 Station Wagon/Sport Utility Vehicle 351973
    ##  4 SPORT UTILITY / STATION WAGON       180291
    ##  5 Taxi                                 43982
    ##  6 4 dr sedan                           40037
    ##  7 TAXI                                 31911
    ##  8 Pick-up Truck                        28360
    ##  9 VAN                                  25266
    ## 10 OTHER                                22966
    ## # … with 1,225 more rows
…
